Chapter 3 Creating Corpus | Corpus Linguistics
…
For example, we can get the article and push tables from the first article link:

extract_article_push_tables(cur_art_links[1])

$article.table
# A tibble: 1 × 5
  datetime                 title        author  content            url          
  <chr>                    <chr>        <chr>   <chr>              <chr>        
1 Thu May 19 16:16:32 2022 Re: [爆卦] … marvin… "這警察也是滿衰小… https://www.…

$push.table
# A tibble: 50 × 5
   tag   author       content                                     datetime url  
   <chr> <chr>        <chr>                                       <chr>    <chr>
 1 →     diefishfish  : 所以怎麼不開單 她不是叫警察開嗎           110.30.… http…
 2 推    l998         : 不要亂講 巧芯一定是用非常有禮貌又理性的態 223.137… http…
 3 →     nowitzki0207 : 議員是多大啦，警察只會開社會底層          180.217… http…
 4 推    snap007      : 不敢開單卻敢上網公審，笑死                114.45.… http…
 5 →     l998         : 度請警察開單的^^                          223.137… http…
 6 噓    zoosd        : 想好久才幫警察找借口 辛苦了               220.129… http…
 7 噓    volleywayne  : 不開還來這裡討拍，這是什麼心態            111.83.… http…
 8 推    Dragonz      : 只能怪自己白目還上網爆料找死              36.236.… http…
 9 →     gay7788      : 要放就放還上來爆卦XD                      118.170… http…
10 →     ShianFun     : 會怕又上網爆料 不是挖洞埋自己             124.218… http…
# … with 40 more rows
…
